<?xml version="1.0" encoding="UTF-8" standalone="no"?>
<svg
   xmlns:dc="http://purl.org/dc/elements/1.1/"
   xmlns:cc="http://creativecommons.org/ns#"
   xmlns:rdf="http://www.w3.org/1999/02/22-rdf-syntax-ns#"
   xmlns:svg="http://www.w3.org/2000/svg"
   xmlns="http://www.w3.org/2000/svg"
   xmlns:sodipodi="http://sodipodi.sourceforge.net/DTD/sodipodi-0.dtd"
   xmlns:inkscape="http://www.inkscape.org/namespaces/inkscape"
   width="142.02698mm"
   height="140.66795mm"
   viewBox="0 0 142.02699 140.66796"
   version="1.1"
   id="svg174"
   inkscape:version="1.0.1 (0767f8302a, 2020-10-17)"
   sodipodi:docname="stone_axe_post.svg">
  <defs
     id="defs168" />
  <sodipodi:namedview
     id="base"
     pagecolor="#ffffff"
     bordercolor="#666666"
     borderopacity="1.0"
     inkscape:pageopacity="0.0"
     inkscape:pageshadow="2"
     inkscape:zoom="0.62225397"
     inkscape:cx="405.6431"
     inkscape:cy="217.06841"
     inkscape:document-units="mm"
     inkscape:current-layer="layer1"
     inkscape:document-rotation="0"
     showgrid="false"
     inkscape:window-width="1853"
     inkscape:window-height="1025"
     inkscape:window-x="67"
     inkscape:window-y="27"
     inkscape:window-maximized="1" />
  <metadata
     id="metadata171">
    <rdf:RDF>
      <cc:Work
         rdf:about="">
        <dc:format>image/svg+xml</dc:format>
        <dc:type
           rdf:resource="http://purl.org/dc/dcmitype/StillImage" />
        <dc:title />
      </cc:Work>
    </rdf:RDF>
  </metadata>
  <g
     inkscape:label="Layer 1"
     inkscape:groupmode="layer"
     id="layer1"
     transform="translate(-105.17033,-92.080081)">
    <path
       style="fill:#2b1100;fill-opacity:1;stroke:none;stroke-width:0.469124px;stroke-linecap:butt;stroke-linejoin:miter;stroke-opacity:1"
       d="m 105.17033,174.37309 4.75104,14.40604 17.57817,43.96891 c -4.32912,-19.87641 -10.2554,-39.93992 -16.37942,-60.02659 z"
       id="path17690"
       sodipodi:nodetypes="ccccc" />
    <path
       style="fill:#1a1a1a;fill-opacity:1;stroke:none;stroke-width:0.541061px;stroke-linecap:butt;stroke-linejoin:miter;stroke-opacity:1"
       d="m 112.94314,178.44319 15.76024,-7.00998 4.60212,12.62596 -17.38759,3.97543 z"
       id="path17692"
       sodipodi:nodetypes="ccccc" />
    <path
       style="fill:#2d3a42;fill-opacity:1;stroke:none;stroke-width:0.541061px;stroke-linecap:butt;stroke-linejoin:miter;stroke-opacity:1"
       d="m 112.94314,178.44319 2.97477,9.59141 1.61902,-11.6721 z"
       id="path18539"
       sodipodi:nodetypes="cccc" />
    <path
       style="fill:#000000;fill-opacity:1;stroke:none;stroke-width:0.469124px;stroke-linecap:butt;stroke-linejoin:miter;stroke-opacity:1"
       d="m 130.31948,231.9876 -19.19937,-59.26616 3.59501,15.77467 12.78442,44.25193 z"
       id="path17985"
       sodipodi:nodetypes="ccccc" />
    <g
       inkscape:label="Layer 1"
       id="layer1-6"
       transform="matrix(-1.0425422,0,0,1.0425422,98.727912,36.207497)">
      <g
         id="g14995"
         transform="matrix(0.95919379,0,0,0.95919379,26.314167,-10.858325)">
        <g
           id="layer4"
           inkscape:label="Layer 2"
           transform="translate(-55.967948,2.2866386)">
          <path
             style="fill:#4c9b26;fill-opacity:1;stroke:none;stroke-width:3.70741;stroke-opacity:0.4"
             d="m -93.365023,79.518075 c 24.160529,4.282877 48.850085,5.439011 74.282901,2.202293 L -31.2561,71.546304 -52.026592,64.906207 -83.750541,72.726804 Z"
             id="path14146"
             sodipodi:nodetypes="cccccc" />
          <path
             style="fill:#3d8321;fill-opacity:1;stroke:none;stroke-width:3.70741;stroke-opacity:0.4"
             d="m -93.365023,79.518075 -8.421067,15.690874 c 27.670585,-2.987422 55.223564,-7.704355 82.703968,-13.488581 z"
             id="path14148"
             sodipodi:nodetypes="cccc" />
          <path
             style="fill:#326f1b;fill-opacity:1;stroke:none;stroke-width:3.70741;stroke-opacity:0.4"
             d="m -101.78609,95.208949 -18.14898,21.540441 c 25.205044,7.9534 51.387447,9.68707 78.066763,8.25844 -16.115303,-14.71677 -36.21526,-24.49178 -59.917783,-29.798881 z"
             id="path14150"
             sodipodi:nodetypes="cccc" />
          <path
             style="fill:#387a20;fill-opacity:1;stroke:none;stroke-width:3.70741;stroke-opacity:0.4"
             d="m -101.78609,95.208949 82.703968,-13.488581 c -3.668916,17.949271 -12.091234,31.637082 -22.786185,43.287462 z"
             id="path14152"
             sodipodi:nodetypes="cccc" />
          <path
             style="fill:#4c9b26;fill-opacity:1;stroke:none;stroke-width:3.70741;stroke-opacity:0.4"
             d="M -19.082122,81.720368 8.7238941,96.421056 19.805907,111.22626 C 3.8582554,106.46148 -7.126621,93.266528 -19.082122,81.720368 Z"
             id="path14154"
             sodipodi:nodetypes="cccc" />
          <path
             style="fill:#3f8522;fill-opacity:1;stroke:none;stroke-width:3.70741;stroke-opacity:0.4"
             d="M 19.805907,111.22626 14.84463,123.64669 C -2.5027947,113.46321 -11.765251,98.202666 -19.082122,81.720368 Z"
             id="path14156"
             sodipodi:nodetypes="cccc" />
          <path
             style="fill:#326f1b;fill-opacity:1;stroke:none;stroke-width:3.70741;stroke-opacity:0.4"
             d="m -19.082122,81.720368 -22.786185,43.287462 c 18.74241,0.61985 36.98017,4.58598 56.712937,-1.36114 z"
             id="path14158"
             sodipodi:nodetypes="cccc" />
          <path
             style="fill:#295f13;fill-opacity:1;stroke:none;stroke-width:3.70741;stroke-opacity:0.4"
             d="m -119.93507,116.74939 13.03623,18.94861 18.825752,7.84277 c 16.258533,-3.67603 31.731799,-9.64447 46.204781,-18.53294 z"
             id="path14160"
             sodipodi:nodetypes="ccccc" />
          <path
             style="fill:#235412;fill-opacity:1;stroke:none;stroke-width:3.70741;stroke-opacity:0.4"
             d="m -41.868307,125.00783 19.997625,3.17345 -66.202406,15.35949 z"
             id="path14162" />
          <path
             style="fill:#295f13;fill-opacity:1;stroke:none;stroke-width:3.70741;stroke-opacity:0.4"
             d="m -41.868307,125.00783 c 15.130607,3.5032 30.686802,6.11276 46.0302841,9.16896 L 14.84463,123.64669 Z"
             id="path14164"
             sodipodi:nodetypes="cccc" />
          <path
             style="fill:#35352d;fill-opacity:1;stroke:none;stroke-width:3.70741;stroke-opacity:0.4"
             d="m -88.239797,125.61655 c -0.129928,1.91714 -0.175407,1.3462 -0.4255,3.2683 -0.132643,-0.29953 36.189028,17.58585 38.418726,22.53801 3.858643,-1.6258 -4.441817,-8.29931 -5.308055,-10.32614 -9.888522,-6.94988 -21.66411,-10.54419 -32.685173,-15.48017 z"
             id="path14166"
             sodipodi:nodetypes="cccccc" />
          <path
             style="fill:#35352d;fill-opacity:1;stroke:none;stroke-width:3.70741;stroke-opacity:0.4"
             d="m -50.2411,143.05773 c 1.895235,-6.85463 -2.366138,-15.09491 -5.036815,-21.58154 2.703751,-0.62674 1.682889,-1.38709 3.938323,-1.67959 4.688019,4.55223 8.976654,26.2908 7.068622,25.78831 z"
             id="path14168"
             sodipodi:nodetypes="ccccc" />
          <path
             style="fill:#35352d;fill-opacity:1;stroke:none;stroke-width:3.70741;stroke-opacity:0.4"
             d="m -44.27097,145.58491 c 0,0 4.06201,-12.26051 8.60338,-15.28841 3.54818,-2.36571 9.46366,-3.9529 10.12551,-8.79392 0.24563,-1.79664 -2.70188,-4.4604 -2.70188,-4.4604 0,0 1.4273,-0.15627 3.6447,-0.42365 2.29948,1.90326 4.02239,2.40171 4.01584,4.58414 -0.0188,6.27053 -7.46338,9.06652 -11.61712,13.0769 -4.7694,4.60478 -8.52512,19.2293 -8.52512,19.2293 z"
             id="path14170"
             sodipodi:nodetypes="csaccascc" />
          <path
             style="fill:#35352d;fill-opacity:1;stroke:none;stroke-width:3.70741;stroke-opacity:0.4"
             d="m -50.196714,149.54886 c -1.842642,20.75466 -1.261094,34.26339 3.25017,52.02286 l 9.061964,0.0283 c -8.281267,-17.55347 -4.687173,-37.80706 -0.429346,-55.60607 -6.321296,-1.96572 -12.516784,-3.44268 -18.997485,-6.02771 z"
             id="path14172"
             sodipodi:nodetypes="cccccc" />
        </g>
        <g
           inkscape:label="Layer 1"
           id="layer1-3"
           transform="translate(-95.353617,-82.655175)" />
      </g>
    </g>
  </g>
</svg>
