<?xml version="1.0" encoding="UTF-8" standalone="no"?>
<svg
   xmlns:dc="http://purl.org/dc/elements/1.1/"
   xmlns:cc="http://creativecommons.org/ns#"
   xmlns:rdf="http://www.w3.org/1999/02/22-rdf-syntax-ns#"
   xmlns:svg="http://www.w3.org/2000/svg"
   xmlns="http://www.w3.org/2000/svg"
   xmlns:sodipodi="http://sodipodi.sourceforge.net/DTD/sodipodi-0.dtd"
   xmlns:inkscape="http://www.inkscape.org/namespaces/inkscape"
   width="93.526718mm"
   height="54.490032mm"
   viewBox="0 0 93.526718 54.490032"
   version="1.1"
   id="svg8"
   sodipodi:docname="clay_excavation_site.svg"
   inkscape:version="1.0.1 (0767f8302a, 2020-10-17)">
  <defs
     id="defs2">
    <filter
       style="color-interpolation-filters:sRGB"
       inkscape:label="Color Shift"
       id="filter49204">
      <feColorMatrix
         type="hueRotate"
         values="0"
         result="color1"
         id="feColorMatrix49200" />
      <feColorMatrix
         type="saturate"
         values="0.84793"
         result="color2"
         id="feColorMatrix49202" />
    </filter>
  </defs>
  <sodipodi:namedview
     id="base"
     pagecolor="#ffffff"
     bordercolor="#666666"
     borderopacity="1.0"
     inkscape:pageopacity="0.0"
     inkscape:pageshadow="2"
     inkscape:zoom="1.4"
     inkscape:cx="76.875072"
     inkscape:cy="93.465412"
     inkscape:document-units="mm"
     inkscape:current-layer="layer1-2"
     inkscape:document-rotation="0"
     showgrid="false"
     inkscape:window-width="1853"
     inkscape:window-height="1025"
     inkscape:window-x="67"
     inkscape:window-y="27"
     inkscape:window-maximized="1"
     inkscape:object-paths="true"
     inkscape:snap-intersection-paths="true"
     inkscape:snap-smooth-nodes="true" />
  <metadata
     id="metadata5">
    <rdf:RDF>
      <cc:Work
         rdf:about="">
        <dc:format>image/svg+xml</dc:format>
        <dc:type
           rdf:resource="http://purl.org/dc/dcmitype/StillImage" />
        <dc:title></dc:title>
      </cc:Work>
    </rdf:RDF>
  </metadata>
  <g
     inkscape:label="Layer 1"
     inkscape:groupmode="layer"
     id="layer1"
     transform="translate(-106.41358,-87.987379)">
    <path
       style="fill:#9f2904;fill-opacity:1;stroke:none;stroke-width:0.157873;stroke-linecap:butt;stroke-linejoin:miter;stroke-miterlimit:4;stroke-dasharray:none;stroke-opacity:1"
       d="m 146.75282,132.44963 29.56224,-0.039 -14.76805,-32.10744 z"
       id="path10025" />
    <path
       style="fill:#c2280a;fill-opacity:1;stroke:none;stroke-width:0.218356;stroke-linecap:butt;stroke-linejoin:miter;stroke-miterlimit:4;stroke-dasharray:none;stroke-opacity:1"
       d="m 155.50299,132.44963 40.88796,-0.054 -20.42589,-44.408251 z"
       id="path10021" />
    <path
       style="fill:none;stroke:#330000;stroke-width:1.5;stroke-linecap:butt;stroke-linejoin:miter;stroke-miterlimit:4;stroke-dasharray:none;stroke-opacity:1"
       d="m 128.55038,132.39563 71.38923,-0.0655"
       id="path10017"
       sodipodi:nodetypes="cc" />
    <path
       style="fill:none;stroke:#330000;stroke-width:1.17041;stroke-linecap:butt;stroke-linejoin:miter;stroke-miterlimit:4;stroke-dasharray:none;stroke-opacity:1"
       d="m 155.90987,142.12157 7.4494,-9.72594 z"
       id="path10041"
       sodipodi:nodetypes="ccc" />
    <path
       style="fill:none;stroke:#330000;stroke-width:1.17041;stroke-linecap:butt;stroke-linejoin:miter;stroke-miterlimit:4;stroke-dasharray:none;stroke-opacity:1"
       d="m 164.16779,142.12157 7.4494,-9.72594 z"
       id="path10043"
       sodipodi:nodetypes="ccc" />
    <path
       style="fill:none;stroke:#330000;stroke-width:1.17041;stroke-linecap:butt;stroke-linejoin:miter;stroke-miterlimit:4;stroke-dasharray:none;stroke-opacity:1"
       d="m 172.42572,142.12157 7.44939,-9.72594 z"
       id="path10045"
       sodipodi:nodetypes="ccc" />
    <path
       style="fill:none;stroke:#330000;stroke-width:1.17041;stroke-linecap:butt;stroke-linejoin:miter;stroke-miterlimit:4;stroke-dasharray:none;stroke-opacity:1"
       d="m 180.68364,142.12157 7.44939,-9.72594 z"
       id="path10047"
       sodipodi:nodetypes="ccc" />
    <path
       style="fill:none;stroke:#330000;stroke-width:1.17041;stroke-linecap:butt;stroke-linejoin:miter;stroke-miterlimit:4;stroke-dasharray:none;stroke-opacity:1"
       d="m 188.94156,142.12157 7.44939,-9.72594 z"
       id="path10049"
       sodipodi:nodetypes="ccc" />
    <path
       style="fill:none;stroke:#330000;stroke-width:1.17041;stroke-linecap:butt;stroke-linejoin:miter;stroke-miterlimit:4;stroke-dasharray:none;stroke-opacity:1"
       d="m 147.65196,142.12157 7.44939,-9.72594 z"
       id="path4659"
       sodipodi:nodetypes="ccc" />
    <path
       style="fill:none;stroke:#330000;stroke-width:1.17041;stroke-linecap:butt;stroke-linejoin:miter;stroke-miterlimit:4;stroke-dasharray:none;stroke-opacity:1"
       d="m 139.39404,142.12157 7.4494,-9.72594 z"
       id="path12432"
       sodipodi:nodetypes="ccc" />
    <path
       style="fill:none;stroke:#330000;stroke-width:1.17041;stroke-linecap:butt;stroke-linejoin:miter;stroke-miterlimit:4;stroke-dasharray:none;stroke-opacity:1"
       d="m 131.13613,142.12157 7.44939,-9.72594 z"
       id="path12436"
       sodipodi:nodetypes="ccc" />
    <g
       inkscape:label="Layer 1"
       id="layer1-2"
       transform="translate(139.8064,-21.599209)">
      <path
         style="fill:#2b1100;fill-opacity:1;stroke:none;stroke-width:0.315003px;stroke-linecap:butt;stroke-linejoin:miter;stroke-opacity:1"
         d="m -18.043434,109.65082 -4.173442,9.43687 -11.175946,30.0603 c 6.887975,-12.11045 13.050859,-24.97106 19.123975,-37.92456 z"
         id="path17690"
         sodipodi:nodetypes="ccccc" />
      <path
         style="fill:#2d3a42;fill-opacity:1;stroke:none;stroke-width:0.380667px;stroke-linecap:butt;stroke-linejoin:miter;stroke-opacity:1"
         d="m -14.268847,111.22343 8.5334746,5.20573 -0.32917,5.10168 -11.3902506,-4.58329 z"
         id="path17692"
         sodipodi:nodetypes="ccccc" />
      <path
         style="fill:#3c4d58;fill-opacity:1;stroke:none;stroke-width:0.380667px;stroke-linecap:butt;stroke-linejoin:miter;stroke-opacity:1"
         d="m -14.268847,111.22343 -3.185946,5.72412 7.445902,-3.12539 z"
         id="path18539"
         sodipodi:nodetypes="cccc" />
      <path
         style="fill:#000000;fill-opacity:1;stroke:none;stroke-width:0.315003px;stroke-linecap:butt;stroke-linejoin:miter;stroke-opacity:1"
         d="m -31.614045,149.90498 17.345199,-38.68155 -5.38572,9.6764 -13.738256,28.24816 z"
         id="path17985"
         sodipodi:nodetypes="ccccc" />
    </g>
  </g>
</svg>
